…
``` r
permits_raw
```

    ## # A tibble: 89,660 x 14
    ##    area  date  f1un… f1ch… f1va… f1va… f24u… f24c… f24v… f24v… f5un… f5ch…
    ##    <chr> <chr> <int> <dbl> <int> <dbl> <int> <dbl> <int> <dbl> <int> <dbl>
    ##  1 Abil… 01/1…    24    NA 67900    NA     4    NA 46200    NA   200    NA
    ##  2 Abil… 02/1…    39    NA 75900    NA     0    NA     0    NA     0    NA
    ##  3 Abil… 03/1…    38    NA 78000    NA     4    NA 37000    NA     0    NA
    ##  4 Abil… 04/1…    29    NA 66500    NA     0    NA     0    NA     0    NA
    ##  5 Abil… 05/1…    29    NA 77600    NA     0    NA     0    NA     0    NA
    ##  6 Abil… 06/1…    42    NA 66500    NA     0    NA     0    NA     0    NA
    ##  7 Abil… 07/1…    48    NA 67600    NA    18    NA 24400    NA     0    NA
    ##  8 Abil… 08/1…    67    NA 69000    NA     0    NA     0    NA     0    NA
    ##  9 Abil… 09/1…    53    NA 60800    NA     2    NA 31200    NA     0    NA
    ## 10 Abil… 10/1…    80    NA 73000    NA     2    NA 23800    NA   152    NA
    ## # ... with 89,650 more rows, and 2 more variables: f5value <int>,
    ## #   f5valchange <dbl>
…
Eliminate the change and valchange variables; can easily recompute if
needed (and good practice to be sceptical about someone elses
computations)

``` r
permits <- permits_raw %>%
  select(-ends_with("change")) %>%
  separate(date, c("month", "year"), "/", convert = TRUE) %>%
  filter(year > 2007)
permits
```

    ## # A tibble: 44,707 x 9
    ##    area        f1units month  year f1value f24units f24value f5units f5va…
    ##    <chr>         <int> <int> <int>   <int>    <int>    <int>   <int> <int>
    ##  1 Abilene, TX      10     1  2008  179100        4   111500       0     0
    ##  2 Abilene, TX      19     2  2008  158000        2    80000       0     0
    ##  3 Abilene, TX      29     3  2008  190300        0        0       0     0
    ##  4 Abilene, TX      21     4  2008  155600        0        0       0     0
    ##  5 Abilene, TX      26     5  2008  159500        0        0       0     0
    ##  6 Abilene, TX      14     6  2008  142100        0        0       0     0
    ##  7 Abilene, TX      20     7  2008  192600        0        0       0     0
    ##  8 Abilene, TX      17     8  2008  215000        0        0       0     0
    ##  9 Abilene, TX       9     9  2008  127500        0        0       0     0
    ## 10 Abilene, TX       8    10  2008  174700        0        0       0     0
    ## # ... with 44,697 more rows
…
``` r
permits %>% count(area)
```

    ## # A tibble: 381 x 2
    ##    area                                  n
    ##    <chr>                             <int>
    ##  1 Abilene, TX                         119
    ##  2 Akron, OH                           119
    ##  3 Albany-Schenectady-Troy, NY         119
    ##  4 Albany, GA                          119
    ##  5 Albany, OR                          119
    ##  6 Albuquerque, NM                     119
    ##  7 Alexandria, LA                      119
    ##  8 Allentown-Bethlehem-Easton, PA-NJ   119
    ##  9 Altoona, PA                         119
    ## 10 Amarillo, TX                        119
    ## # ... with 371 more rows
…
Let’s start by focusing on the bigger cities. This might give a
misleading overview (maybe big cities are different fundamentally) but
it’s a good place to start because they’ll have more permits so should
hopefully be less variation and the long-term patterns clearler.

``` r
f1units <- permits %>% 
  group_by(area) %>%
  summarise(mean = mean(f1units)) %>% 
  arrange(desc(mean))
f1units
```

    ## # A tibble: 381 x 2
    ##    area                                            mean
    ##    <chr>                                          <dbl>
    ##  1 Houston-The Woodlands-Sugar Land, TX            2546
    ##  2 Dallas-Fort Worth-Arlington, TX                 1802
    ##  3 Atlanta-Sandy Springs-Roswell, GA               1154
    ##  4 Phoenix-Mesa-Scottsdale, AZ                     1057
    ##  5 Washington-Arlington-Alexandria, DC-VA-MD-WV     955
    ##  6 Austin-Round Rock, TX                            795
    ##  7 Charlotte-Concord-Gastonia, NC-SC                786
    ##  8 New York-Newark-Jersey City, NY-NJ-PA            758
    ##  9 Orlando-Kissimmee-Sanford, FL                    713
    ## 10 Nashville-Davidson--Murfreesboro--Franklin, TN   647
    ## # ... with 371 more rows
…
